user departures,user arrivals,relocation departures,relocation arrivals,number,frequency,relative departures,relative arrivals
3404.0,3370.0,18.0,61.0,72,2016-05-01,1342.0,1341.0
2676.0,2703.0,40.0,1.0,79,2016-05-01,1222.0,1218.0
1028.0,1031.0,16.0,15.0,82,2016-05-01,589.0,591.0
1205.0,1201.0,113.0,117.0,83,2016-05-01,864.0,868.0
5336.0,5339.0,50.0,32.0,116,2016-05-01,1684.0,1668.0
218.0,208.0,21.0,31.0,119,2016-05-01,233.0,235.0
720.0,689.0,19.0,66.0,120,2016-05-01,576.0,584.0
5722.0,5801.0,118.0,25.0,127,2016-05-01,1802.0,1774.0
5466.0,5654.0,226.0,28.0,128,2016-05-01,1886.0,1874.0
1836.0,1958.0,179.0,55.0,137,2016-05-01,1216.0,1216.0
901.0,893.0,14.0,30.0,143,2016-05-01,624.0,622.0
800.0,861.0,64.0,4.0,144,2016-05-01,450.0,450.0
2459.0,2502.0,70.0,37.0,146,2016-05-01,1138.0,1165.0
4577.0,4748.0,182.0,6.0,147,2016-05-01,1560.0,1537.0
2623.0,2149.0,111.0,591.0,150,2016-05-01,1627.0,1643.0
7526.0,7485.0,70.0,94.0,151,2016-05-01,2039.0,2022.0
2113.0,2159.0,70.0,12.0,152,2016-05-01,1024.0,1016.0
4278.0,3894.0,36.0,407.0,153,2016-05-01,1682.0,1674.0
1399.0,1503.0,153.0,54.0,157,2016-05-01,947.0,953.0
83.0,80.0,1.0,,160,2016-05-01,44.0,39.0
5455.0,5535.0,98.0,9.0,161,2016-05-01,1797.0,1805.0
2808.0,2639.0,15.0,178.0,164,2016-05-01,1463.0,1456.0
4412.0,4345.0,14.0,72.0,167,2016-05-01,1426.0,1411.0
6322.0,6429.0,130.0,8.0,168,2016-05-01,1976.0,1956.0
4674.0,4631.0,61.0,97.0,173,2016-05-01,1704.0,1696.0
3015.0,2963.0,23.0,95.0,174,2016-05-01,1259.0,1270.0
3439.0,3337.0,40.0,141.0,195,2016-05-01,1354.0,1353.0
4211.0,4242.0,63.0,9.0,212,2016-05-01,1616.0,1596.0
747.0,595.0,5.0,151.0,216,2016-05-01,527.0,533.0
2627.0,2763.0,284.0,150.0,217,2016-05-01,1484.0,1476.0
3805.0,3828.0,28.0,14.0,223,2016-05-01,1468.0,1471.0
2109.0,2015.0,9.0,81.0,224,2016-05-01,1007.0,997.0
3755.0,3998.0,302.0,45.0,225,2016-05-01,1680.0,1658.0
2752.0,2791.0,77.0,38.0,228,2016-05-01,1561.0,1560.0
6099.0,6144.0,77.0,17.0,229,2016-05-01,1756.0,1749.0
1241.0,1244.0,38.0,48.0,232,2016-05-01,470.0,480.0
890.0,793.0,5.0,116.0,233,2016-05-01,485.0,502.0
4422.0,4414.0,68.0,81.0,236,2016-05-01,1766.0,1766.0
4454.0,4500.0,44.0,7.0,237,2016-05-01,1707.0,1716.0
2647.0,2679.0,57.0,26.0,238,2016-05-01,1240.0,1245.0
1063.0,1023.0,36.0,80.0,239,2016-05-01,771.0,771.0
803.0,772.0,20.0,57.0,241,2016-05-01,591.0,593.0
758.0,835.0,86.0,14.0,242,2016-05-01,549.0,556.0
791.0,1008.0,245.0,15.0,243,2016-05-01,735.0,726.0
857.0,831.0,22.0,55.0,244,2016-05-01,661.0,669.0
523.0,443.0,7.0,87.0,245,2016-05-01,411.0,409.0
2549.0,2563.0,28.0,15.0,247,2016-05-01,1181.0,1181.0
1035.0,1057.0,48.0,19.0,248,2016-05-01,709.0,696.0
1769.0,1789.0,30.0,3.0,249,2016-05-01,992.0,973.0
7042.0,7104.0,108.0,26.0,250,2016-05-01,2002.0,1976.0
4582.0,4668.0,138.0,26.0,251,2016-05-01,1614.0,1592.0
3161.0,3167.0,36.0,5.0,252,2016-05-01,1339.0,1329.0
3322.0,3312.0,33.0,31.0,253,2016-05-01,1360.0,1317.0
2424.0,2414.0,9.0,12.0,254,2016-05-01,1083.0,1082.0
,48.0,52.0,,255,2016-05-01,,
3017.0,3075.0,83.0,8.0,257,2016-05-01,1443.0,1413.0
1083.0,847.0,8.0,234.0,258,2016-05-01,734.0,736.0
2286.0,2330.0,53.0,8.0,259,2016-05-01,1174.0,1174.0
1225.0,1664.0,612.0,172.0,260,2016-05-01,1028.0,1027.0
1022.0,989.0,17.0,52.0,261,2016-05-01,580.0,584.0
776.0,642.0,6.0,137.0,262,2016-05-01,582.0,574.0
3692.0,3707.0,22.0,6.0,263,2016-05-01,1450.0,1448.0
2009.0,2039.0,96.0,65.0,264,2016-05-01,1123.0,1119.0
4809.0,4896.0,116.0,13.0,265,2016-05-01,1693.0,1668.0
1060.0,1108.0,51.0,20.0,266,2016-05-01,807.0,823.0
2120.0,2015.0,7.0,102.0,267,2016-05-01,869.0,864.0
2769.0,2800.0,40.0,9.0,268,2016-05-01,1184.0,1183.0
1224.0,1199.0,70.0,100.0,270,2016-05-01,894.0,905.0
916.0,1006.0,83.0,4.0,274,2016-05-01,640.0,658.0
562.0,496.0,9.0,82.0,275,2016-05-01,452.0,453.0
2039.0,2055.0,35.0,11.0,276,2016-05-01,970.0,959.0
656.0,662.0,38.0,36.0,278,2016-05-01,453.0,457.0
3414.0,3468.0,89.0,25.0,279,2016-05-01,1392.0,1376.0
2740.0,2726.0,13.0,4.0,280,2016-05-01,1240.0,1231.0
5201.0,4729.0,177.0,645.0,281,2016-05-01,2440.0,2418.0
1185.0,1206.0,18.0,10.0,282,2016-05-01,575.0,581.0
7356.0,7477.0,159.0,36.0,284,2016-05-01,2079.0,2077.0
7570.0,7565.0,158.0,150.0,285,2016-05-01,2275.0,2239.0
422.0,276.0,12.0,147.0,289,2016-05-01,375.0,369.0
1342.0,1359.0,6.0,3.0,291,2016-05-01,805.0,819.0
9246.0,9457.0,319.0,102.0,293,2016-05-01,2567.0,2518.0
2115.0,2131.0,21.0,8.0,295,2016-05-01,1034.0,1035.0
2352.0,2381.0,45.0,6.0,296,2016-05-01,1162.0,1145.0
4412.0,4413.0,18.0,11.0,297,2016-05-01,1499.0,1498.0
472.0,504.0,30.0,14.0,298,2016-05-01,389.0,418.0
3404.0,3440.0,83.0,23.0,300,2016-05-01,1642.0,1598.0
3982.0,4024.0,68.0,27.0,301,2016-05-01,1662.0,1664.0
1519.0,1566.0,61.0,15.0,302,2016-05-01,944.0,954.0
3056.0,3773.0,750.0,19.0,303,2016-05-01,1771.0,1758.0
4712.0,4422.0,853.0,1139.0,304,2016-05-01,1996.0,1992.0
3763.0,3698.0,43.0,104.0,305,2016-05-01,1477.0,1476.0
2237.0,2226.0,7.0,17.0,306,2016-05-01,1072.0,1066.0
3858.0,3822.0,37.0,79.0,307,2016-05-01,1498.0,1509.0
1776.0,1792.0,19.0,8.0,308,2016-05-01,889.0,893.0
2423.0,3185.0,843.0,68.0,309,2016-05-01,1870.0,1837.0
1767.0,1778.0,34.0,26.0,310,2016-05-01,863.0,867.0
2678.0,2732.0,95.0,52.0,311,2016-05-01,1251.0,1250.0
592.0,613.0,3.0,3.0,312,2016-05-01,226.0,250.0
938.0,1045.0,106.0,10.0,313,2016-05-01,665.0,681.0
3104.0,3162.0,111.0,51.0,315,2016-05-01,1299.0,1299.0
2152.0,2137.0,32.0,45.0,316,2016-05-01,1095.0,1089.0
3149.0,3212.0,116.0,52.0,317,2016-05-01,1411.0,1411.0
2036.0,1976.0,34.0,67.0,319,2016-05-01,1137.0,1114.0
2338.0,2328.0,16.0,11.0,320,2016-05-01,1121.0,1117.0
1439.0,1295.0,27.0,162.0,321,2016-05-01,676.0,671.0
1271.0,1250.0,65.0,78.0,322,2016-05-01,605.0,617.0
1849.0,1823.0,45.0,65.0,323,2016-05-01,968.0,960.0
1362.0,2132.0,785.0,7.0,324,2016-05-01,1485.0,1496.0
2854.0,2848.0,10.0,13.0,325,2016-05-01,1237.0,1228.0
3897.0,3772.0,64.0,204.0,326,2016-05-01,1548.0,1567.0
6918.0,6800.0,71.0,170.0,327,2016-05-01,2042.0,2008.0
3230.0,3255.0,39.0,8.0,328,2016-05-01,1256.0,1242.0
3755.0,3789.0,89.0,33.0,329,2016-05-01,1507.0,1489.0
2124.0,2085.0,21.0,42.0,330,2016-05-01,1047.0,1021.0
1119.0,1109.0,10.0,25.0,331,2016-05-01,776.0,767.0
1407.0,1485.0,65.0,6.0,332,2016-05-01,799.0,818.0
4825.0,4842.0,39.0,21.0,334,2016-05-01,1556.0,1552.0
3702.0,3766.0,76.0,10.0,335,2016-05-01,1397.0,1393.0
3557.0,3711.0,166.0,10.0,336,2016-05-01,1564.0,1556.0
1528.0,2085.0,591.0,34.0,337,2016-05-01,1157.0,1156.0
749.0,770.0,6.0,4.0,339,2016-05-01,546.0,561.0
1509.0,1494.0,11.0,40.0,340,2016-05-01,938.0,945.0
1463.0,1485.0,18.0,2.0,341,2016-05-01,815.0,822.0
1564.0,1540.0,19.0,40.0,342,2016-05-01,918.0,905.0
728.0,728.0,28.0,33.0,343,2016-05-01,408.0,422.0
585.0,561.0,17.0,45.0,344,2016-05-01,447.0,446.0
3933.0,3928.0,17.0,15.0,345,2016-05-01,1385.0,1376.0
3765.0,3817.0,54.0,2.0,346,2016-05-01,1459.0,1459.0
5600.0,5768.0,177.0,9.0,347,2016-05-01,1921.0,1891.0
4443.0,4710.0,300.0,26.0,348,2016-05-01,1802.0,1791.0
1718.0,1693.0,73.0,112.0,349,2016-05-01,979.0,986.0
2388.0,2357.0,26.0,54.0,350,2016-05-01,1138.0,1130.0
2008.0,2004.0,10.0,12.0,351,2016-05-01,1217.0,1207.0
3899.0,4153.0,276.0,9.0,352,2016-05-01,1593.0,1579.0
611.0,633.0,17.0,6.0,353,2016-05-01,445.0,457.0
670.0,656.0,80.0,99.0,354,2016-05-01,595.0,608.0
2988.0,3018.0,45.0,6.0,355,2016-05-01,1292.0,1286.0
2136.0,2039.0,226.0,329.0,356,2016-05-01,1290.0,1293.0
2307.0,2303.0,8.0,2.0,357,2016-05-01,943.0,938.0
6560.0,6652.0,135.0,26.0,358,2016-05-01,1981.0,1982.0
6598.0,5941.0,122.0,778.0,359,2016-05-01,2034.0,2032.0
2041.0,2035.0,13.0,22.0,360,2016-05-01,1123.0,1121.0
3747.0,3766.0,49.0,34.0,361,2016-05-01,1496.0,1496.0
2272.0,2131.0,15.0,150.0,362,2016-05-01,925.0,922.0
3715.0,3715.0,168.0,165.0,363,2016-05-01,1662.0,1669.0
737.0,704.0,2.0,47.0,364,2016-05-01,524.0,532.0
612.0,631.0,32.0,25.0,365,2016-05-01,472.0,483.0
1508.0,1459.0,18.0,87.0,366,2016-05-01,984.0,1003.0
3608.0,3650.0,327.0,283.0,367,2016-05-01,1479.0,1485.0
7566.0,7646.0,112.0,21.0,368,2016-05-01,2282.0,2279.0
2573.0,2582.0,29.0,18.0,369,2016-05-01,1275.0,1263.0
350.0,342.0,6.0,6.0,372,2016-05-01,270.0,271.0
558.0,561.0,23.0,15.0,373,2016-05-01,440.0,441.0
1907.0,1929.0,34.0,9.0,376,2016-05-01,1018.0,1011.0
2305.0,2325.0,35.0,11.0,377,2016-05-01,1376.0,1364.0
6543.0,6748.0,260.0,49.0,379,2016-05-01,1876.0,1871.0
4900.0,5086.0,179.0,7.0,380,2016-05-01,1814.0,1818.0
5920.0,6170.0,275.0,20.0,382,2016-05-01,1899.0,1866.0
3926.0,3969.0,42.0,11.0,383,2016-05-01,1614.0,1618.0
1354.0,1378.0,38.0,33.0,384,2016-05-01,844.0,865.0
2424.0,2433.0,16.0,2.0,385,2016-05-01,1004.0,1003.0
2409.0,2433.0,38.0,5.0,386,2016-05-01,1221.0,1225.0
6516.0,6406.0,62.0,161.0,387,2016-05-01,2057.0,2018.0
6253.0,6540.0,317.0,18.0,388,2016-05-01,2261.0,2250.0
1372.0,1315.0,19.0,80.0,389,2016-05-01,609.0,600.0
970.0,931.0,27.0,59.0,390,2016-05-01,719.0,709.0
1604.0,1404.0,7.0,200.0,391,2016-05-01,875.0,879.0
1619.0,1705.0,135.0,52.0,392,2016-05-01,899.0,887.0
1728.0,1807.0,266.0,200.0,393,2016-05-01,1212.0,1229.0
3289.0,3249.0,338.0,381.0,394,2016-05-01,1644.0,1658.0
1006.0,1013.0,40.0,37.0,395,2016-05-01,641.0,649.0
885.0,956.0,92.0,8.0,396,2016-05-01,676.0,684.0
735.0,740.0,20.0,23.0,397,2016-05-01,544.0,546.0
1557.0,1739.0,191.0,11.0,398,2016-05-01,954.0,964.0
844.0,514.0,14.0,341.0,399,2016-05-01,664.0,675.0
682.0,715.0,28.0,2.0,400,2016-05-01,535.0,538.0
441.0,467.0,18.0,18.0,401,2016-05-01,164.0,178.0
9002.0,9026.0,707.0,682.0,402,2016-05-01,2153.0,2144.0
5181.0,5265.0,103.0,33.0,405,2016-05-01,1888.0,1894.0
1273.0,1230.0,21.0,79.0,406,2016-05-01,821.0,839.0
646.0,586.0,2.0,80.0,407,2016-05-01,464.0,484.0
1384.0,1417.0,43.0,,408,2016-05-01,841.0,837.0
514.0,448.0,18.0,96.0,409,2016-05-01,424.0,435.0
4932.0,5049.0,136.0,15.0,410,2016-05-01,1853.0,1847.0
1575.0,1591.0,45.0,35.0,411,2016-05-01,939.0,946.0
2806.0,2782.0,37.0,49.0,412,2016-05-01,1120.0,1106.0
1302.0,1535.0,257.0,21.0,414,2016-05-01,976.0,972.0
2145.0,2311.0,189.0,21.0,415,2016-05-01,1197.0,1194.0
837.0,740.0,7.0,106.0,416,2016-05-01,519.0,514.0
4619.0,4612.0,35.0,25.0,417,2016-05-01,1405.0,1387.0
760.0,824.0,70.0,1.0,418,2016-05-01,582.0,579.0
535.0,476.0,,62.0,419,2016-05-01,460.0,453.0
661.0,548.0,9.0,120.0,420,2016-05-01,483.0,488.0
395.0,381.0,26.0,49.0,421,2016-05-01,364.0,367.0
1919.0,1594.0,13.0,335.0,422,2016-05-01,978.0,977.0
2515.0,2414.0,14.0,100.0,423,2016-05-01,1058.0,1053.0
10128.0,10188.0,167.0,94.0,426,2016-05-01,2065.0,2047.0
2062.0,2196.0,200.0,64.0,427,2016-05-01,1138.0,1137.0
4867.0,4829.0,26.0,64.0,428,2016-05-01,1722.0,1719.0
2363.0,2406.0,114.0,66.0,430,2016-05-01,1161.0,1145.0
5179.0,6290.0,2023.0,916.0,432,2016-05-01,2483.0,2473.0
3662.0,3740.0,131.0,60.0,433,2016-05-01,1668.0,1680.0
3958.0,4077.0,152.0,20.0,434,2016-05-01,1530.0,1514.0
9220.0,9267.0,133.0,68.0,435,2016-05-01,2318.0,2296.0
450.0,428.0,9.0,42.0,436,2016-05-01,359.0,366.0
932.0,925.0,57.0,56.0,437,2016-05-01,665.0,659.0
3259.0,3314.0,54.0,9.0,438,2016-05-01,1339.0,1361.0
4561.0,4559.0,57.0,49.0,439,2016-05-01,1753.0,1754.0
2618.0,2645.0,35.0,4.0,440,2016-05-01,1206.0,1204.0
2678.0,2657.0,10.0,20.0,441,2016-05-01,1129.0,1119.0
381.0,286.0,6.0,90.0,443,2016-05-01,316.0,300.0
7280.0,7008.0,63.0,313.0,444,2016-05-01,2305.0,2271.0
4809.0,4867.0,401.0,341.0,445,2016-05-01,2157.0,2164.0
4200.0,4195.0,44.0,28.0,446,2016-05-01,1062.0,1040.0
3751.0,3608.0,26.0,164.0,447,2016-05-01,1321.0,1312.0
3343.0,3342.0,35.0,56.0,448,2016-05-01,1379.0,1383.0
2203.0,2186.0,16.0,32.0,449,2016-05-01,877.0,873.0
4254.0,4238.0,13.0,24.0,450,2016-05-01,1395.0,1392.0
4882.0,5000.0,111.0,9.0,453,2016-05-01,1797.0,1814.0
1848.0,1852.0,7.0,,454,2016-05-01,902.0,899.0
2529.0,3027.0,512.0,2.0,455,2016-05-01,1280.0,1261.0
2290.0,2441.0,157.0,8.0,456,2016-05-01,1139.0,1138.0
5362.0,5066.0,92.0,378.0,457,2016-05-01,1794.0,1765.0
5516.0,5593.0,104.0,11.0,458,2016-05-01,1850.0,1833.0
7651.0,7905.0,270.0,3.0,459,2016-05-01,2329.0,2323.0
1963.0,1971.0,63.0,44.0,460,2016-05-01,1023.0,1012.0
4518.0,4572.0,121.0,86.0,461,2016-05-01,1744.0,1766.0
5856.0,6045.0,180.0,6.0,462,2016-05-01,2019.0,2038.0
3702.0,3776.0,96.0,8.0,463,2016-05-01,1251.0,1237.0
3135.0,3112.0,28.0,54.0,465,2016-05-01,970.0,968.0
5192.0,5247.0,72.0,7.0,466,2016-05-01,1683.0,1679.0
1578.0,1939.0,395.0,30.0,467,2016-05-01,1235.0,1238.0
4094.0,4002.0,36.0,128.0,468,2016-05-01,1285.0,1283.0
2862.0,2690.0,36.0,210.0,469,2016-05-01,1190.0,1189.0
3627.0,3616.0,31.0,34.0,470,2016-05-01,1448.0,1440.0
1250.0,1276.0,51.0,30.0,471,2016-05-01,803.0,807.0
5404.0,5386.0,18.0,37.0,472,2016-05-01,1492.0,1492.0
4017.0,4087.0,111.0,14.0,473,2016-05-01,1621.0,1601.0
4594.0,4574.0,26.0,38.0,474,2016-05-01,1616.0,1610.0
3668.0,3640.0,29.0,59.0,475,2016-05-01,1374.0,1374.0
3510.0,3325.0,16.0,187.0,476,2016-05-01,1381.0,1370.0
6471.0,7097.0,827.0,166.0,477,2016-05-01,2477.0,2443.0
3800.0,3954.0,181.0,38.0,478,2016-05-01,1588.0,1586.0
4703.0,4721.0,76.0,43.0,479,2016-05-01,1546.0,1530.0
2863.0,2730.0,32.0,156.0,480,2016-05-01,1251.0,1243.0
1583.0,1508.0,13.0,98.0,481,2016-05-01,943.0,953.0
4572.0,4628.0,67.0,9.0,482,2016-05-01,1588.0,1584.0
4580.0,4625.0,37.0,2.0,483,2016-05-01,1620.0,1628.0
4169.0,4111.0,49.0,92.0,484,2016-05-01,1465.0,1450.0
3234.0,3180.0,14.0,46.0,485,2016-05-01,1295.0,1276.0
4497.0,4438.0,22.0,78.0,486,2016-05-01,1453.0,1451.0
4524.0,4298.0,806.0,1037.0,487,2016-05-01,2253.0,2274.0
4164.0,4472.0,521.0,203.0,488,2016-05-01,1741.0,1746.0
7270.0,7165.0,119.0,190.0,490,2016-05-01,2362.0,2336.0
3648.0,4165.0,588.0,62.0,491,2016-05-01,1779.0,1768.0
5201.0,6088.0,947.0,53.0,492,2016-05-01,2115.0,2089.0
3045.0,3099.0,68.0,12.0,493,2016-05-01,1349.0,1345.0
7464.0,7596.0,155.0,21.0,494,2016-05-01,2038.0,2056.0
3176.0,3201.0,50.0,4.0,495,2016-05-01,1327.0,1308.0
5081.0,5163.0,117.0,8.0,496,2016-05-01,1832.0,1793.0
9036.0,9273.0,297.0,50.0,497,2016-05-01,2519.0,2473.0
4298.0,4297.0,30.0,26.0,498,2016-05-01,1228.0,1228.0
5484.0,5095.0,92.0,476.0,499,2016-05-01,1783.0,1773.0
2778.0,2977.0,241.0,40.0,500,2016-05-01,1254.0,1252.0
3397.0,3494.0,669.0,570.0,501,2016-05-01,1581.0,1582.0
2435.0,2413.0,27.0,72.0,502,2016-05-01,1212.0,1240.0
4150.0,4219.0,80.0,11.0,503,2016-05-01,1469.0,1459.0
5548.0,5720.0,229.0,77.0,504,2016-05-01,1888.0,1928.0
5357.0,5386.0,66.0,22.0,505,2016-05-01,1574.0,1551.0
4512.0,4463.0,15.0,77.0,507,2016-05-01,1483.0,1484.0
3522.0,3489.0,39.0,68.0,508,2016-05-01,1361.0,1352.0
5341.0,5427.0,141.0,72.0,509,2016-05-01,1767.0,1793.0
3339.0,4002.0,672.0,9.0,510,2016-05-01,1658.0,1652.0
5033.0,4387.0,856.0,1547.0,511,2016-05-01,2238.0,2241.0
2717.0,2710.0,22.0,37.0,513,2016-05-01,1126.0,1127.0
7699.0,7962.0,530.0,350.0,514,2016-05-01,2531.0,2542.0
3689.0,3894.0,215.0,25.0,515,2016-05-01,1601.0,1596.0
1462.0,1447.0,16.0,29.0,516,2016-05-01,820.0,816.0
3731.0,3171.0,21.0,547.0,517,2016-05-01,1229.0,1222.0
5027.0,4765.0,20.0,279.0,518,2016-05-01,1578.0,1577.0
12775.0,12511.0,116.0,358.0,519,2016-05-01,2181.0,2167.0
5754.0,5250.0,665.0,1149.0,520,2016-05-01,2254.0,2250.0
2731.0,2827.0,128.0,12.0,521,2016-05-01,959.0,932.0
742.0,760.0,18.0,1.0,522,2016-05-01,402.0,398.0
5781.0,5779.0,38.0,23.0,523,2016-05-01,1583.0,1567.0
3014.0,2762.0,14.0,265.0,524,2016-05-01,1499.0,1497.0
3135.0,3124.0,37.0,52.0,525,2016-05-01,1345.0,1341.0
4006.0,3908.0,14.0,96.0,526,2016-05-01,1381.0,1373.0
5415.0,4822.0,38.0,625.0,527,2016-05-01,1799.0,1793.0
3545.0,3528.0,24.0,33.0,528,2016-05-01,1267.0,1256.0
3657.0,3600.0,200.0,222.0,529,2016-05-01,1716.0,1698.0
3218.0,3264.0,45.0,25.0,530,2016-05-01,1350.0,1371.0
4317.0,4299.0,67.0,73.0,531,2016-05-01,1689.0,1694.0
3330.0,3109.0,121.0,344.0,532,2016-05-01,1423.0,1409.0
3548.0,3544.0,28.0,16.0,533,2016-05-01,1263.0,1248.0
1493.0,1732.0,275.0,36.0,534,2016-05-01,1018.0,1019.0
4192.0,4137.0,52.0,108.0,536,2016-05-01,1548.0,1548.0
5417.0,5422.0,24.0,10.0,537,2016-05-01,1596.0,1586.0
1956.0,1984.0,70.0,53.0,539,2016-05-01,1051.0,1040.0
4087.0,4096.0,17.0,9.0,540,2016-05-01,1318.0,1314.0
4294.0,4245.0,29.0,77.0,545,2016-05-01,1511.0,1520.0
3515.0,3546.0,42.0,2.0,546,2016-05-01,1341.0,1332.0
1927.0,2080.0,172.0,25.0,2000,2016-05-01,1056.0,1068.0
360.0,369.0,40.0,25.0,2001,2016-05-01,337.0,335.0
2455.0,2596.0,153.0,30.0,2002,2016-05-01,1208.0,1231.0
3827.0,3804.0,189.0,213.0,2003,2016-05-01,1736.0,1762.0
2591.0,2609.0,49.0,17.0,2004,2016-05-01,1291.0,1277.0
58.0,77.0,21.0,3.0,2005,2016-05-01,73.0,79.0
7434.0,6960.0,136.0,587.0,2006,2016-05-01,2488.0,2466.0
4560.0,4543.0,49.0,55.0,2008,2016-05-01,1529.0,1524.0
1563.0,1596.0,40.0,22.0,2009,2016-05-01,943.0,945.0
2955.0,2971.0,42.0,7.0,2010,2016-05-01,1356.0,1336.0
2989.0,2962.0,28.0,52.0,2012,2016-05-01,1332.0,1316.0
1515.0,1489.0,8.0,32.0,2017,2016-05-01,850.0,848.0
3982.0,3971.0,31.0,24.0,2021,2016-05-01,1396.0,1365.0
925.0,918.0,4.0,4.0,2022,2016-05-01,552.0,544.0
1666.0,1608.0,10.0,64.0,2023,2016-05-01,994.0,989.0
7236.0,7230.0,107.0,94.0,3002,2016-05-01,1924.0,1905.0
9.0,3.0,1.0,7.0,3014,2016-05-01,,
2922.0,3019.0,121.0,62.0,3016,2016-05-01,1142.0,1181.0
,42.0,43.0,,3017,2016-05-01,,
215.0,211.0,11.0,18.0,3041,2016-05-01,204.0,205.0
337.0,315.0,10.0,30.0,3042,2016-05-01,297.0,294.0
192.0,183.0,3.0,15.0,3043,2016-05-01,170.0,173.0
142.0,131.0,4.0,14.0,3044,2016-05-01,132.0,142.0
273.0,276.0,3.0,5.0,3046,2016-05-01,229.0,233.0
391.0,421.0,33.0,13.0,3047,2016-05-01,336.0,345.0
220.0,222.0,4.0,5.0,3048,2016-05-01,196.0,200.0
281.0,295.0,3.0,,3049,2016-05-01,236.0,242.0
301.0,273.0,4.0,37.0,3050,2016-05-01,247.0,244.0
488.0,489.0,20.0,28.0,3052,2016-05-01,433.0,433.0
196.0,147.0,3.0,54.0,3053,2016-05-01,176.0,185.0
261.0,270.0,20.0,18.0,3054,2016-05-01,249.0,258.0
347.0,351.0,25.0,25.0,3055,2016-05-01,301.0,309.0
220.0,231.0,9.0,7.0,3056,2016-05-01,184.0,192.0
288.0,278.0,10.0,23.0,3057,2016-05-01,271.0,266.0
394.0,362.0,14.0,59.0,3058,2016-05-01,356.0,357.0
107.0,110.0,1.0,6.0,3059,2016-05-01,95.0,101.0
264.0,273.0,12.0,10.0,3060,2016-05-01,247.0,252.0
137.0,142.0,6.0,6.0,3061,2016-05-01,125.0,126.0
341.0,342.0,5.0,12.0,3062,2016-05-01,273.0,282.0
189.0,256.0,73.0,4.0,3063,2016-05-01,229.0,230.0
752.0,799.0,49.0,9.0,3064,2016-05-01,562.0,565.0
257.0,227.0,1.0,35.0,3065,2016-05-01,186.0,195.0
325.0,345.0,31.0,9.0,3066,2016-05-01,293.0,304.0
339.0,373.0,27.0,3.0,3067,2016-05-01,283.0,295.0
448.0,519.0,68.0,3.0,3068,2016-05-01,434.0,439.0
296.0,285.0,4.0,17.0,3069,2016-05-01,218.0,221.0
330.0,324.0,1.0,,3070,2016-05-01,275.0,274.0
316.0,316.0,6.0,8.0,3071,2016-05-01,257.0,260.0
333.0,349.0,6.0,2.0,3072,2016-05-01,286.0,292.0
404.0,392.0,12.0,27.0,3073,2016-05-01,322.0,325.0
1018.0,1088.0,74.0,8.0,3074,2016-05-01,705.0,716.0
248.0,242.0,3.0,7.0,3075,2016-05-01,187.0,188.0
473.0,492.0,9.0,,3076,2016-05-01,389.0,390.0
783.0,791.0,6.0,3.0,3077,2016-05-01,551.0,557.0
904.0,881.0,15.0,36.0,3078,2016-05-01,573.0,573.0
663.0,690.0,29.0,13.0,3079,2016-05-01,473.0,482.0
595.0,617.0,26.0,8.0,3080,2016-05-01,446.0,446.0
506.0,497.0,4.0,23.0,3081,2016-05-01,392.0,399.0
908.0,914.0,12.0,13.0,3082,2016-05-01,653.0,649.0
519.0,524.0,4.0,2.0,3083,2016-05-01,384.0,388.0
595.0,594.0,2.0,4.0,3084,2016-05-01,427.0,429.0
824.0,825.0,9.0,5.0,3085,2016-05-01,586.0,582.0
1124.0,1108.0,23.0,40.0,3086,2016-05-01,690.0,690.0
1211.0,1191.0,13.0,10.0,3087,2016-05-01,738.0,715.0
585.0,609.0,23.0,4.0,3088,2016-05-01,440.0,444.0
263.0,234.0,2.0,47.0,3089,2016-05-01,216.0,233.0
2377.0,2420.0,75.0,18.0,3090,2016-05-01,1205.0,1183.0
370.0,350.0,1.0,30.0,3091,2016-05-01,290.0,300.0
1679.0,1731.0,79.0,19.0,3092,2016-05-01,965.0,952.0
2627.0,2661.0,95.0,40.0,3093,2016-05-01,1328.0,1306.0
547.0,538.0,16.0,33.0,3094,2016-05-01,398.0,397.0
441.0,422.0,6.0,32.0,3095,2016-05-01,369.0,370.0
906.0,922.0,19.0,13.0,3096,2016-05-01,579.0,583.0
177.0,173.0,1.0,,3097,2016-05-01,142.0,138.0
440.0,387.0,6.0,65.0,3098,2016-05-01,356.0,361.0
365.0,346.0,3.0,21.0,3099,2016-05-01,300.0,298.0
684.0,671.0,4.0,22.0,3100,2016-05-01,499.0,503.0
1055.0,1039.0,8.0,7.0,3101,2016-05-01,637.0,620.0
719.0,708.0,3.0,12.0,3102,2016-05-01,470.0,473.0
992.0,994.0,15.0,7.0,3103,2016-05-01,692.0,696.0
357.0,342.0,,12.0,3105,2016-05-01,279.0,274.0
977.0,977.0,16.0,24.0,3106,2016-05-01,688.0,690.0
1796.0,1833.0,42.0,5.0,3107,2016-05-01,970.0,973.0
1160.0,1199.0,24.0,,3108,2016-05-01,767.0,776.0
853.0,889.0,29.0,5.0,3109,2016-05-01,636.0,641.0
1019.0,1023.0,13.0,11.0,3110,2016-05-01,648.0,646.0
648.0,657.0,7.0,,3111,2016-05-01,475.0,478.0
1828.0,1973.0,152.0,7.0,3112,2016-05-01,1035.0,1031.0
1069.0,1090.0,35.0,6.0,3113,2016-05-01,680.0,673.0
275.0,303.0,30.0,11.0,3114,2016-05-01,257.0,269.0
864.0,865.0,4.0,3.0,3115,2016-05-01,602.0,598.0
1042.0,1053.0,25.0,26.0,3116,2016-05-01,740.0,748.0
635.0,655.0,13.0,1.0,3117,2016-05-01,465.0,468.0
761.0,731.0,6.0,43.0,3118,2016-05-01,496.0,501.0
1790.0,1779.0,18.0,20.0,3119,2016-05-01,1042.0,1035.0
476.0,532.0,65.0,13.0,3120,2016-05-01,407.0,412.0
338.0,313.0,9.0,26.0,3121,2016-05-01,281.0,265.0
452.0,452.0,4.0,1.0,3122,2016-05-01,344.0,348.0
168.0,188.0,12.0,1.0,3123,2016-05-01,155.0,166.0
1115.0,1186.0,67.0,1.0,3124,2016-05-01,825.0,824.0
691.0,716.0,21.0,,3125,2016-05-01,506.0,510.0
852.0,809.0,28.0,57.0,3126,2016-05-01,633.0,617.0
212.0,254.0,28.0,,3127,2016-05-01,189.0,206.0
223.0,171.0,2.0,52.0,3128,2016-05-01,184.0,175.0
1648.0,1668.0,44.0,22.0,3129,2016-05-01,866.0,864.0
901.0,854.0,4.0,48.0,3131,2016-05-01,491.0,491.0
2085.0,2153.0,89.0,19.0,3132,2016-05-01,1161.0,1162.0
1755.0,1575.0,4.0,184.0,3134,2016-05-01,908.0,907.0
1814.0,1786.0,6.0,63.0,3135,2016-05-01,1064.0,1082.0
2246.0,2037.0,35.0,235.0,3136,2016-05-01,1204.0,1180.0
4545.0,4501.0,47.0,91.0,3137,2016-05-01,1475.0,1476.0
1189.0,904.0,23.0,302.0,3138,2016-05-01,817.0,800.0
2083.0,1872.0,10.0,201.0,3139,2016-05-01,1070.0,1072.0
3473.0,3505.0,105.0,96.0,3140,2016-05-01,1779.0,1774.0
5527.0,5451.0,24.0,82.0,3141,2016-05-01,1773.0,1760.0
3055.0,2950.0,9.0,104.0,3142,2016-05-01,1224.0,1223.0
5094.0,5038.0,200.0,251.0,3143,2016-05-01,1724.0,1730.0
1028.0,863.0,12.0,156.0,3144,2016-05-01,724.0,739.0
3572.0,3718.0,228.0,84.0,3145,2016-05-01,1860.0,1837.0
1313.0,1252.0,7.0,67.0,3146,2016-05-01,818.0,833.0
3555.0,3684.0,133.0,13.0,3147,2016-05-01,1557.0,1555.0
1806.0,1961.0,157.0,13.0,3148,2016-05-01,1167.0,1178.0
1813.0,1888.0,75.0,39.0,3150,2016-05-01,1284.0,1317.0
1530.0,1585.0,36.0,7.0,3151,2016-05-01,1046.0,1079.0
1355.0,1377.0,4.0,2.0,3153,2016-05-01,747.0,751.0
1643.0,1600.0,5.0,49.0,3154,2016-05-01,813.0,812.0
2167.0,2163.0,7.0,8.0,3155,2016-05-01,966.0,965.0
3254.0,3236.0,20.0,35.0,3156,2016-05-01,1271.0,1279.0
1093.0,1138.0,35.0,,3157,2016-05-01,794.0,799.0
2814.0,2713.0,35.0,126.0,3158,2016-05-01,1187.0,1185.0
2691.0,2586.0,17.0,115.0,3159,2016-05-01,1113.0,1112.0
2653.0,2341.0,23.0,327.0,3160,2016-05-01,1412.0,1411.0
1574.0,1461.0,11.0,135.0,3161,2016-05-01,959.0,962.0
1751.0,1758.0,10.0,7.0,3162,2016-05-01,950.0,950.0
3315.0,2963.0,98.0,444.0,3163,2016-05-01,1556.0,1544.0
3465.0,2580.0,57.0,891.0,3164,2016-05-01,1875.0,1872.0
4040.0,3662.0,115.0,475.0,3165,2016-05-01,1808.0,1813.0
1969.0,2011.0,50.0,28.0,3166,2016-05-01,1129.0,1144.0
3418.0,3399.0,20.0,54.0,3167,2016-05-01,1399.0,1414.0
5193.0,5186.0,91.0,99.0,3168,2016-05-01,1847.0,1853.0
2457.0,2547.0,53.0,6.0,3169,2016-05-01,1336.0,1371.0
2222.0,1903.0,28.0,367.0,3170,2016-05-01,1278.0,1306.0
1966.0,2028.0,44.0,4.0,3171,2016-05-01,1161.0,1169.0
1543.0,1255.0,12.0,311.0,3172,2016-05-01,952.0,959.0
2524.0,2612.0,65.0,7.0,3173,2016-05-01,1368.0,1389.0
2310.0,2291.0,12.0,30.0,3175,2016-05-01,1067.0,1067.0
1751.0,1722.0,6.0,37.0,3176,2016-05-01,1008.0,1007.0
3350.0,3396.0,104.0,85.0,3177,2016-05-01,1818.0,1834.0
1767.0,1646.0,15.0,158.0,3178,2016-05-01,1078.0,1083.0
184.0,188.0,4.0,11.0,3179,2016-05-01,159.0,169.0
1154.0,1147.0,7.0,24.0,3180,2016-05-01,570.0,579.0
479.0,474.0,5.0,37.0,3182,2016-05-01,140.0,139.0
,1.0,1.0,,3183,2016-05-01,1324.0,1326.0
,69.0,69.0,,3219,2016-05-01,,
240.0,257.0,21.0,3.0,3221,2016-05-01,228.0,229.0
1941.0,2037.0,124.0,32.0,3222,2016-05-01,1044.0,1046.0
2335.0,2316.0,15.0,32.0,3223,2016-05-01,1208.0,1206.0
4144.0,4320.0,206.0,7.0,3224,2016-05-01,1736.0,1712.0
,1.0,1.0,,3225,2016-05-01,462.0,461.0
1965.0,2002.0,38.0,31.0,3226,2016-05-01,1168.0,1180.0
5645.0,3176.0,647.0,3231.0,3230,2016-05-01,348.0,348.0
1670.0,1635.0,9.0,41.0,3231,2016-05-01,807.0,804.0
540.0,630.0,93.0,6.0,3232,2016-05-01,453.0,470.0
3577.0,3955.0,382.0,3.0,3233,2016-05-01,1391.0,1391.0
1893.0,1898.0,9.0,3.0,3235,2016-05-01,709.0,709.0
4147.0,2136.0,114.0,2181.0,3236,2016-05-01,1457.0,1471.0
292.0,299.0,20.0,12.0,3237,2016-05-01,267.0,264.0
1139.0,1149.0,36.0,52.0,3238,2016-05-01,805.0,821.0
,19.0,20.0,,3240,2016-05-01,,
299.0,283.0,21.0,37.0,3241,2016-05-01,285.0,282.0
1447.0,1489.0,62.0,17.0,3242,2016-05-01,834.0,827.0
1187.0,1188.0,7.0,4.0,3243,2016-05-01,657.0,657.0
2895.0,2890.0,17.0,22.0,3244,2016-05-01,1116.0,1117.0
928.0,948.0,21.0,9.0,3246,2016-05-01,590.0,603.0
197.0,199.0,11.0,13.0,3249,2016-05-01,180.0,185.0
,52.0,66.0,,3250,2016-05-01,,
20.0,28.0,9.0,1.0,3252,2016-05-01,9.0,8.0
62.0,86.0,39.0,15.0,3253,2016-05-01,10.0,9.0
394.0,401.0,15.0,29.0,3254,2016-05-01,146.0,139.0
2859.0,2921.0,102.0,43.0,3255,2016-05-01,875.0,888.0
,,,,72,2016-06-01,5.0,12.0
,,,,79,2016-06-01,8.0,6.0
,,,,82,2016-06-01,2.0,5.0
,,,,83,2016-06-01,2.0,5.0
,,,,116,2016-06-01,10.0,10.0
,,,,119,2016-06-01,5.0,1.0
,,,,120,2016-06-01,3.0,11.0
,,,,127,2016-06-01,6.0,23.0
,,,,128,2016-06-01,20.0,21.0
,,,,137,2016-06-01,2.0,1.0
,,,,143,2016-06-01,1.0,10.0
,,,,144,2016-06-01,2.0,3.0
,,,,146,2016-06-01,20.0,4.0
,,,,147,2016-06-01,13.0,13.0
,,,,150,2016-06-01,6.0,2.0
,,,,151,2016-06-01,9.0,5.0
,,,,152,2016-06-01,5.0,3.0
,,,,153,2016-06-01,1.0,1.0
,,,,157,2016-06-01,11.0,5.0
,,,,161,2016-06-01,13.0,10.0
,,,,164,2016-06-01,12.0,19.0
,,,,167,2016-06-01,5.0,6.0
,,,,168,2016-06-01,2.0,2.0
,,,,173,2016-06-01,26.0,25.0
,,,,174,2016-06-01,3.0,15.0
,,,,195,2016-06-01,4.0,5.0
,,,,212,2016-06-01,9.0,2.0
,,,,216,2016-06-01,4.0,2.0
,,,,217,2016-06-01,19.0,9.0
,,,,223,2016-06-01,9.0,11.0
,,,,224,2016-06-01,14.0,22.0
,,,,225,2016-06-01,25.0,17.0
,,,,228,2016-06-01,3.0,6.0
,,,,229,2016-06-01,7.0,6.0
,,,,232,2016-06-01,3.0,4.0
,,,,233,2016-06-01,4.0,2.0
,,,,236,2016-06-01,4.0,14.0
,,,,237,2016-06-01,4.0,3.0
,,,,238,2016-06-01,10.0,5.0
,,,,239,2016-06-01,2.0,16.0
,,,,241,2016-06-01,2.0,7.0
,,,,242,2016-06-01,1.0,6.0
,,,,243,2016-06-01,6.0,0.0
,,,,244,2016-06-01,4.0,7.0
,,,,245,2016-06-01,-0.0,7.0
,,,,247,2016-06-01,6.0,6.0
,,,,248,2016-06-01,2.0,2.0
,,,,249,2016-06-01,5.0,2.0
,,,,250,2016-06-01,9.0,6.0
,,,,251,2016-06-01,9.0,7.0
,,,,252,2016-06-01,7.0,2.0
,,,,253,2016-06-01,6.0,4.0
,,,,254,2016-06-01,7.0,5.0
,,,,257,2016-06-01,8.0,7.0
,,,,258,2016-06-01,3.0,10.0
,,,,259,2016-06-01,1.0,1.0
,,,,260,2016-06-01,-0.0,1.0
,,,,261,2016-06-01,1.0,5.0
,,,,262,2016-06-01,2.0,4.0
,,,,263,2016-06-01,4.0,9.0
,,,,264,2016-06-01,6.0,9.0
,,,,265,2016-06-01,15.0,15.0
,,,,266,2016-06-01,5.0,5.0
,,,,267,2016-06-01,3.0,3.0
,,,,268,2016-06-01,3.0,4.0
,,,,270,2016-06-01,3.0,2.0
,,,,274,2016-06-01,4.0,0.0
,,,,275,2016-06-01,1.0,12.0
,,,,276,2016-06-01,5.0,6.0
,,,,278,2016-06-01,2.0,2.0
,,,,279,2016-06-01,4.0,11.0
,,,,280,2016-06-01,12.0,3.0
,,,,281,2016-06-01,27.0,27.0
,,,,282,2016-06-01,-0.0,6.0
,,,,284,2016-06-01,9.0,11.0
,,,,285,2016-06-01,13.0,7.0
,,,,289,2016-06-01,1.0,7.0
,,,,291,2016-06-01,4.0,4.0
,,,,293,2016-06-01,13.0,11.0
,,,,295,2016-06-01,3.0,8.0
,,,,296,2016-06-01,3.0,10.0
,,,,297,2016-06-01,14.0,7.0
,,,,298,2016-06-01,1.0,1.0
,,,,300,2016-06-01,6.0,4.0
,,,,301,2016-06-01,6.0,5.0
,,,,302,2016-06-01,5.0,3.0
,,,,303,2016-06-01,17.0,0.0
,,,,304,2016-06-01,3.0,6.0
,,,,305,2016-06-01,5.0,4.0
,,,,306,2016-06-01,2.0,5.0
,,,,307,2016-06-01,6.0,4.0
,,,,308,2016-06-01,6.0,8.0
,,,,309,2016-06-01,1.0,1.0
,,,,310,2016-06-01,4.0,6.0
,,,,311,2016-06-01,4.0,20.0
,,,,312,2016-06-01,11.0,6.0
,,,,313,2016-06-01,7.0,4.0
,,,,315,2016-06-01,4.0,4.0
,,,,316,2016-06-01,5.0,7.0
,,,,317,2016-06-01,7.0,8.0
,,,,319,2016-06-01,2.0,2.0
,,,,320,2016-06-01,11.0,2.0
,,,,321,2016-06-01,1.0,1.0
,,,,322,2016-06-01,14.0,1.0
,,,,323,2016-06-01,6.0,11.0
,,,,324,2016-06-01,13.0,1.0
,,,,325,2016-06-01,7.0,8.0
,,,,326,2016-06-01,18.0,9.0
,,,,327,2016-06-01,7.0,10.0
,,,,328,2016-06-01,8.0,9.0
,,,,329,2016-06-01,6.0,7.0
,,,,330,2016-06-01,8.0,2.0
,,,,331,2016-06-01,3.0,16.0
,,,,332,2016-06-01,1.0,3.0
,,,,334,2016-06-01,8.0,11.0
,,,,335,2016-06-01,2.0,2.0
,,,,336,2016-06-01,14.0,9.0
,,,,337,2016-06-01,7.0,6.0
,,,,339,2016-06-01,3.0,3.0
,,,,340,2016-06-01,4.0,15.0
,,,,341,2016-06-01,1.0,3.0
,,,,342,2016-06-01,6.0,15.0
,,,,343,2016-06-01,-0.0,1.0
,,,,344,2016-06-01,5.0,6.0
,,,,345,2016-06-01,10.0,7.0
,,,,346,2016-06-01,7.0,5.0
,,,,347,2016-06-01,9.0,4.0
,,,,348,2016-06-01,4.0,6.0
,,,,349,2016-06-01,2.0,10.0
,,,,350,2016-06-01,5.0,9.0
,,,,351,2016-06-01,5.0,9.0
,,,,352,2016-06-01,6.0,6.0
,,,,353,2016-06-01,2.0,4.0
,,,,354,2016-06-01,9.0,4.0
,,,,355,2016-06-01,12.0,10.0
,,,,356,2016-06-01,21.0,19.0
,,,,357,2016-06-01,5.0,4.0
,,,,358,2016-06-01,10.0,15.0
,,,,359,2016-06-01,-0.0,0.0
,,,,360,2016-06-01,4.0,9.0
,,,,361,2016-06-01,9.0,13.0
,,,,362,2016-06-01,-0.0,0.0
,,,,363,2016-06-01,2.0,11.0
,,,,364,2016-06-01,4.0,8.0
,,,,365,2016-06-01,1.0,13.0
,,,,366,2016-06-01,4.0,4.0
,,,,367,2016-06-01,9.0,5.0
,,,,368,2016-06-01,19.0,9.0
,,,,369,2016-06-01,5.0,12.0
,,,,372,2016-06-01,1.0,0.0
,,,,373,2016-06-01,1.0,4.0
,,,,376,2016-06-01,3.0,6.0
,,,,377,2016-06-01,4.0,7.0
,,,,379,2016-06-01,8.0,10.0
,,,,380,2016-06-01,16.0,6.0
,,,,382,2016-06-01,6.0,4.0
,,,,383,2016-06-01,11.0,14.0
,,,,384,2016-06-01,4.0,3.0
,,,,385,2016-06-01,12.0,11.0
,,,,386,2016-06-01,5.0,0.0
,,,,387,2016-06-01,7.0,11.0
,,,,388,2016-06-01,11.0,13.0
,,,,389,2016-06-01,4.0,7.0
,,,,390,2016-06-01,1.0,16.0
,,,,391,2016-06-01,3.0,7.0
,,,,392,2016-06-01,5.0,6.0
,,,,393,2016-06-01,-0.0,0.0
,,,,394,2016-06-01,17.0,12.0
,,,,395,2016-06-01,5.0,4.0
,,,,396,2016-06-01,6.0,5.0
,,,,397,2016-06-01,3.0,9.0
,,,,398,2016-06-01,3.0,2.0
,,,,399,2016-06-01,1.0,1.0
,,,,400,2016-06-01,6.0,3.0
,,,,401,2016-06-01,4.0,16.0
,,,,402,2016-06-01,3.0,6.0
,,,,405,2016-06-01,13.0,8.0
,,,,406,2016-06-01,3.0,7.0
,,,,407,2016-06-01,1.0,5.0
,,,,408,2016-06-01,9.0,8.0
,,,,409,2016-06-01,-0.0,3.0
,,,,410,2016-06-01,6.0,6.0
,,,,411,2016-06-01,1.0,1.0
,,,,412,2016-06-01,6.0,3.0
,,,,414,2016-06-01,7.0,2.0
,,,,415,2016-06-01,7.0,8.0
,,,,416,2016-06-01,-0.0,7.0
,,,,417,2016-06-01,7.0,7.0
,,,,418,2016-06-01,5.0,1.0
,,,,419,2016-06-01,-0.0,4.0
,,,,420,2016-06-01,4.0,6.0
,,,,421,2016-06-01,-0.0,8.0
,,,,422,2016-06-01,2.0,6.0
,,,,423,2016-06-01,6.0,9.0
,,,,426,2016-06-01,20.0,9.0
,,,,427,2016-06-01,6.0,7.0
,,,,428,2016-06-01,4.0,11.0
,,,,430,2016-06-01,8.0,13.0
,,,,432,2016-06-01,14.0,33.0
,,,,433,2016-06-01,8.0,5.0
,,,,434,2016-06-01,15.0,12.0
,,,,435,2016-06-01,4.0,5.0
,,,,436,2016-06-01,2.0,5.0
,,,,437,2016-06-01,4.0,4.0
,,,,438,2016-06-01,6.0,8.0
,,,,439,2016-06-01,20.0,10.0
,,,,440,2016-06-01,4.0,4.0
,,,,441,2016-06-01,5.0,4.0
,,,,443,2016-06-01,1.0,1.0
,,,,444,2016-06-01,4.0,4.0
,,,,445,2016-06-01,6.0,6.0
,,,,447,2016-06-01,9.0,9.0
,,,,448,2016-06-01,3.0,20.0
,,,,449,2016-06-01,9.0,6.0
,,,,450,2016-06-01,9.0,12.0
,,,,453,2016-06-01,8.0,12.0
,,,,454,2016-06-01,10.0,10.0
,,,,455,2016-06-01,4.0,4.0
,,,,456,2016-06-01,2.0,2.0
,,,,457,2016-06-01,4.0,2.0
,,,,458,2016-06-01,11.0,9.0
,,,,459,2016-06-01,43.0,4.0
,,,,460,2016-06-01,3.0,8.0
,,,,461,2016-06-01,6.0,24.0
,,,,462,2016-06-01,21.0,8.0
,,,,465,2016-06-01,3.0,6.0
,,,,466,2016-06-01,5.0,5.0
,,,,467,2016-06-01,7.0,7.0
,,,,468,2016-06-01,5.0,5.0
,,,,469,2016-06-01,3.0,5.0
,,,,470,2016-06-01,8.0,10.0
,,,,471,2016-06-01,9.0,13.0
,,,,472,2016-06-01,7.0,7.0
,,,,473,2016-06-01,9.0,10.0
,,,,474,2016-06-01,5.0,5.0
,,,,475,2016-06-01,9.0,8.0
,,,,476,2016-06-01,7.0,8.0
,,,,477,2016-06-01,7.0,9.0
,,,,478,2016-06-01,2.0,19.0
,,,,479,2016-06-01,7.0,8.0
,,,,480,2016-06-01,6.0,11.0
,,,,481,2016-06-01,6.0,10.0
,,,,482,2016-06-01,9.0,11.0
,,,,483,2016-06-01,21.0,22.0
,,,,484,2016-06-01,1.0,1.0
,,,,485,2016-06-01,7.0,7.0
,,,,486,2016-06-01,4.0,4.0
,,,,487,2016-06-01,21.0,11.0
,,,,488,2016-06-01,14.0,4.0
,,,,490,2016-06-01,25.0,3.0
,,,,491,2016-06-01,2.0,2.0
,,,,492,2016-06-01,5.0,7.0
,,,,493,2016-06-01,1.0,2.0
,,,,494,2016-06-01,15.0,7.0
,,,,495,2016-06-01,15.0,9.0
,,,,496,2016-06-01,4.0,3.0
,,,,497,2016-06-01,3.0,3.0
,,,,498,2016-06-01,4.0,4.0
,,,,499,2016-06-01,5.0,9.0
,,,,500,2016-06-01,1.0,1.0
,,,,501,2016-06-01,5.0,4.0
,,,,502,2016-06-01,4.0,4.0
,,,,503,2016-06-01,8.0,7.0
,,,,504,2016-06-01,13.0,12.0
,,,,505,2016-06-01,2.0,3.0
,,,,507,2016-06-01,5.0,24.0
,,,,508,2016-06-01,1.0,13.0
,,,,509,2016-06-01,8.0,10.0
,,,,510,2016-06-01,2.0,2.0
,,,,511,2016-06-01,7.0,21.0
,,,,513,2016-06-01,6.0,14.0
,,,,514,2016-06-01,1.0,23.0
,,,,515,2016-06-01,6.0,13.0
,,,,516,2016-06-01,2.0,6.0
,,,,517,2016-06-01,1.0,1.0
,,,,518,2016-06-01,8.0,7.0
,,,,519,2016-06-01,5.0,5.0
,,,,520,2016-06-01,-0.0,0.0
,,,,522,2016-06-01,3.0,3.0
,,,,523,2016-06-01,3.0,4.0
,,,,524,2016-06-01,1.0,1.0
,,,,525,2016-06-01,3.0,15.0
,,,,526,2016-06-01,4.0,4.0
,,,,527,2016-06-01,9.0,8.0
,,,,528,2016-06-01,11.0,12.0
,,,,529,2016-06-01,14.0,13.0
,,,,530,2016-06-01,5.0,8.0
,,,,531,2016-06-01,9.0,6.0
,,,,532,2016-06-01,4.0,10.0
,,,,533,2016-06-01,3.0,2.0
,,,,534,2016-06-01,3.0,3.0
,,,,536,2016-06-01,4.0,6.0
,,,,537,2016-06-01,8.0,6.0
,,,,539,2016-06-01,4.0,7.0
,,,,540,2016-06-01,5.0,5.0
,,,,545,2016-06-01,3.0,2.0
,,,,546,2016-06-01,3.0,5.0
,,,,2000,2016-06-01,13.0,2.0
,,,,2001,2016-06-01,1.0,1.0
,,,,2002,2016-06-01,11.0,5.0
,,,,2003,2016-06-01,6.0,14.0
,,,,2004,2016-06-01,5.0,5.0
,,,,2005,2016-06-01,-0.0,0.0
,,,,2006,2016-06-01,9.0,10.0
,,,,2008,2016-06-01,12.0,12.0
,,,,2009,2016-06-01,4.0,16.0
,,,,2010,2016-06-01,3.0,5.0
,,,,2012,2016-06-01,-0.0,13.0
,,,,2017,2016-06-01,5.0,6.0
,,,,2021,2016-06-01,6.0,6.0
,,,,2022,2016-06-01,-0.0,1.0
,,,,2023,2016-06-01,2.0,2.0
,,,,3002,2016-06-01,16.0,18.0
,,,,3016,2016-06-01,10.0,5.0
,,,,3041,2016-06-01,-0.0,6.0
,,,,3042,2016-06-01,1.0,1.0
,,,,3043,2016-06-01,1.0,2.0
,,,,3044,2016-06-01,1.0,0.0
,,,,3046,2016-06-01,-0.0,3.0
,,,,3047,2016-06-01,2.0,5.0
,,,,3048,2016-06-01,1.0,2.0
,,,,3049,2016-06-01,1.0,7.0
,,,,3050,2016-06-01,-0.0,5.0
,,,,3052,2016-06-01,-0.0,10.0
,,,,3053,2016-06-01,1.0,3.0
,,,,3054,2016-06-01,1.0,5.0
,,,,3055,2016-06-01,3.0,3.0
,,,,3056,2016-06-01,4.0,4.0
,,,,3057,2016-06-01,1.0,6.0
,,,,3058,2016-06-01,-0.0,3.0
,,,,3059,2016-06-01,-0.0,2.0
,,,,3060,2016-06-01,-0.0,4.0
,,,,3061,2016-06-01,-0.0,1.0
,,,,3062,2016-06-01,4.0,1.0
,,,,3063,2016-06-01,1.0,1.0
,,,,3064,2016-06-01,3.0,9.0
,,,,3065,2016-06-01,4.0,0.0
,,,,3066,2016-06-01,2.0,0.0
,,,,3067,2016-06-01,1.0,4.0
,,,,3068,2016-06-01,1.0,3.0
,,,,3069,2016-06-01,-0.0,3.0
,,,,3070,2016-06-01,4.0,1.0
,,,,3071,2016-06-01,1.0,2.0
,,,,3072,2016-06-01,-0.0,4.0
,,,,3073,2016-06-01,4.0,4.0
,,,,3074,2016-06-01,1.0,7.0
,,,,3075,2016-06-01,1.0,2.0
,,,,3076,2016-06-01,-0.0,10.0
,,,,3077,2016-06-01,4.0,6.0
,,,,3078,2016-06-01,-0.0,0.0
,,,,3079,2016-06-01,2.0,4.0
,,,,3080,2016-06-01,2.0,7.0
,,,,3081,2016-06-01,-0.0,5.0
,,,,3082,2016-06-01,3.0,9.0
,,,,3083,2016-06-01,3.0,2.0
,,,,3084,2016-06-01,3.0,3.0
,,,,3085,2016-06-01,4.0,3.0
,,,,3086,2016-06-01,4.0,4.0
,,,,3087,2016-06-01,8.0,8.0
,,,,3088,2016-06-01,4.0,5.0
,,,,3089,2016-06-01,3.0,2.0
,,,,3090,2016-06-01,10.0,6.0
,,,,3091,2016-06-01,4.0,6.0
,,,,3092,2016-06-01,12.0,9.0
,,,,3093,2016-06-01,8.0,4.0
,,,,3094,2016-06-01,3.0,9.0
,,,,3095,2016-06-01,2.0,9.0
,,,,3096,2016-06-01,3.0,9.0
,,,,3098,2016-06-01,4.0,5.0
,,,,3099,2016-06-01,1.0,2.0
,,,,3100,2016-06-01,4.0,8.0
,,,,3101,2016-06-01,2.0,1.0
,,,,3102,2016-06-01,6.0,1.0
,,,,3103,2016-06-01,8.0,3.0
,,,,3105,2016-06-01,3.0,2.0
,,,,3106,2016-06-01,4.0,9.0
,,,,3107,2016-06-01,5.0,6.0
,,,,3108,2016-06-01,4.0,10.0
,,,,3109,2016-06-01,2.0,8.0
,,,,3110,2016-06-01,4.0,13.0
,,,,3111,2016-06-01,5.0,5.0
,,,,3112,2016-06-01,6.0,6.0
,,,,3113,2016-06-01,7.0,6.0
,,,,3114,2016-06-01,-0.0,2.0
,,,,3115,2016-06-01,4.0,7.0
,,,,3116,2016-06-01,7.0,13.0
,,,,3117,2016-06-01,1.0,7.0
,,,,3118,2016-06-01,1.0,1.0
,,,,3119,2016-06-01,2.0,2.0
,,,,3120,2016-06-01,3.0,4.0
,,,,3121,2016-06-01,-0.0,0.0
,,,,3122,2016-06-01,8.0,0.0
,,,,3123,2016-06-01,2.0,1.0
,,,,3124,2016-06-01,8.0,15.0
,,,,3125,2016-06-01,5.0,3.0
,,,,3126,2016-06-01,4.0,15.0
,,,,3127,2016-06-01,5.0,0.0
,,,,3128,2016-06-01,-0.0,11.0
,,,,3129,2016-06-01,5.0,7.0
,,,,3131,2016-06-01,2.0,1.0
,,,,3132,2016-06-01,3.0,2.0
,,,,3134,2016-06-01,7.0,7.0
,,,,3135,2016-06-01,4.0,7.0
,,,,3136,2016-06-01,-0.0,0.0
,,,,3137,2016-06-01,3.0,2.0
,,,,3138,2016-06-01,1.0,0.0
,,,,3139,2016-06-01,7.0,3.0
,,,,3140,2016-06-01,3.0,25.0
,,,,3141,2016-06-01,10.0,10.0
,,,,3142,2016-06-01,8.0,3.0
,,,,3143,2016-06-01,6.0,2.0
,,,,3144,2016-06-01,8.0,1.0
,,,,3145,2016-06-01,4.0,13.0
,,,,3146,2016-06-01,6.0,7.0
,,,,3147,2016-06-01,3.0,5.0
,,,,3148,2016-06-01,3.0,2.0
,,,,3150,2016-06-01,3.0,10.0
,,,,3151,2016-06-01,19.0,12.0
,,,,3153,2016-06-01,4.0,18.0
,,,,3154,2016-06-01,1.0,4.0
,,,,3155,2016-06-01,4.0,4.0
,,,,3156,2016-06-01,1.0,15.0
,,,,3157,2016-06-01,1.0,9.0
,,,,3158,2016-06-01,7.0,7.0
,,,,3159,2016-06-01,12.0,8.0
,,,,3160,2016-06-01,9.0,6.0
,,,,3161,2016-06-01,2.0,12.0
,,,,3162,2016-06-01,4.0,7.0
,,,,3163,2016-06-01,4.0,9.0
,,,,3164,2016-06-01,6.0,14.0
,,,,3165,2016-06-01,12.0,0.0
,,,,3166,2016-06-01,1.0,2.0
,,,,3167,2016-06-01,10.0,9.0
,,,,3168,2016-06-01,5.0,8.0
,,,,3169,2016-06-01,3.0,8.0
,,,,3170,2016-06-01,5.0,5.0
,,,,3171,2016-06-01,6.0,13.0
,,,,3172,2016-06-01,3.0,13.0
,,,,3173,2016-06-01,6.0,8.0
,,,,3175,2016-06-01,8.0,12.0
,,,,3176,2016-06-01,-0.0,9.0
,,,,3177,2016-06-01,5.0,26.0
,,,,3178,2016-06-01,-0.0,14.0
,,,,3179,2016-06-01,-0.0,1.0
,,,,3180,2016-06-01,4.0,7.0
,,,,3182,2016-06-01,-0.0,0.0
,,,,3183,2016-06-01,11.0,1.0
,,,,3184,2016-05-01,646.0,644.0
,,,,3184,2016-06-01,3.0,6.0
,,,,3185,2016-05-01,562.0,557.0
,,,,3185,2016-06-01,5.0,7.0
,,,,3186,2016-05-01,1761.0,1753.0
,,,,3186,2016-06-01,18.0,8.0
,,,,3187,2016-05-01,637.0,635.0
,,,,3187,2016-06-01,1.0,6.0
,,,,3188,2016-05-01,30.0,31.0
,,,,3188,2016-06-01,1.0,0.0
,,,,3189,2016-05-01,14.0,14.0
,,,,3189,2016-06-01,2.0,1.0
,,,,3190,2016-05-01,78.0,76.0
,,,,3190,2016-06-01,-0.0,1.0
,,,,3191,2016-05-01,56.0,55.0
,,,,3191,2016-06-01,1.0,0.0
,,,,3192,2016-05-01,658.0,662.0
,,,,3192,2016-06-01,-0.0,5.0
,,,,3193,2016-05-01,323.0,333.0
,,,,3193,2016-06-01,3.0,3.0
,,,,3194,2016-05-01,514.0,515.0
,,,,3194,2016-06-01,5.0,0.0
,,,,3195,2016-05-01,1365.0,1360.0
,,,,3195,2016-06-01,6.0,0.0
,,,,3196,2016-05-01,165.0,162.0
,,,,3196,2016-06-01,5.0,4.0
,,,,3197,2016-05-01,155.0,156.0
,,,,3197,2016-06-01,1.0,1.0
,,,,3198,2016-05-01,165.0,165.0
,,,,3198,2016-06-01,-0.0,0.0
,,,,3199,2016-05-01,633.0,627.0
,,,,3199,2016-06-01,4.0,8.0
,,,,3200,2016-05-01,21.0,19.0
,,,,3200,2016-06-01,3.0,2.0
,,,,3201,2016-05-01,223.0,223.0
,,,,3201,2016-06-01,-0.0,0.0
,,,,3202,2016-05-01,958.0,952.0
,,,,3202,2016-06-01,7.0,8.0
,,,,3203,2016-05-01,1196.0,1212.0
,,,,3203,2016-06-01,11.0,3.0
,,,,3205,2016-05-01,363.0,362.0
,,,,3205,2016-06-01,5.0,0.0
,,,,3206,2016-05-01,201.0,192.0
,,,,3206,2016-06-01,3.0,4.0
,,,,3207,2016-05-01,388.0,390.0
,,,,3207,2016-06-01,-0.0,7.0
,,,,3209,2016-05-01,978.0,968.0
,,,,3209,2016-06-01,3.0,6.0
,,,,3210,2016-05-01,341.0,346.0
,,,,3210,2016-06-01,3.0,3.0
,,,,3211,2016-05-01,668.0,666.0
,,,,3211,2016-06-01,6.0,4.0
,,,,3212,2016-05-01,206.0,210.0
,,,,3212,2016-06-01,1.0,2.0
,,,,3213,2016-05-01,698.0,695.0
,,,,3213,2016-06-01,10.0,10.0
,,,,3214,2016-05-01,915.0,914.0
,,,,3214,2016-06-01,7.0,7.0
,,,,3215,2016-05-01,247.0,247.0
,,,,3215,2016-06-01,2.0,3.0
,,,,3216,2016-05-01,15.0,16.0
,,,,3216,2016-06-01,-0.0,0.0
,,,,3217,2016-05-01,26.0,27.0
,,,,3217,2016-06-01,-0.0,0.0
,,,,3220,2016-05-01,190.0,190.0
,,,,3220,2016-06-01,5.0,1.0
,,,,3221,2016-06-01,1.0,2.0
,,,,3222,2016-06-01,5.0,8.0
,,,,3223,2016-06-01,4.0,4.0
,,,,3224,2016-06-01,12.0,6.0
,,,,3225,2016-06-01,3.0,4.0
,,,,3226,2016-06-01,3.0,17.0
,,,,3231,2016-06-01,5.0,2.0
,,,,3232,2016-06-01,4.0,4.0
,,,,3233,2016-06-01,2.0,2.0
,,,,3235,2016-06-01,-0.0,0.0
,,,,3236,2016-06-01,9.0,7.0
,,,,3237,2016-06-01,1.0,2.0
,,,,3238,2016-06-01,2.0,14.0
,,,,3241,2016-06-01,2.0,3.0
,,,,3242,2016-06-01,5.0,6.0
,,,,3243,2016-06-01,4.0,5.0
,,,,3244,2016-06-01,3.0,4.0
,,,,3246,2016-06-01,1.0,0.0
,,,,3249,2016-06-01,1.0,1.0
,,,,3254,2016-06-01,-0.0,0.0
,,,,3255,2016-06-01,21.0,2.0
